Public const CT_DefaultBrowser = "Firefox"
Class Base_GAuto_Activity_Web
	Private sClass
	Private Val_DefaultObjectExists
'	Base_GAuto_Activity_Web.DefaultObjectExists = 1
	
		'First Time but not allowed
	Private Sub Class_Initialize
		sClass = "GAuto_Activity"
		
		
		sMethod = sClass & ".Class_Initialize"
		call logging("Call Method " & sMethod,c_DEBUG,1)
		Me.DefaultObjectExists = 1
		
	End Sub
	
		'Field Name for TestCase
	Public Property Get DefaultObjectExists()
		DefaultObjectExists = Val_DefaultObjectExists
	End Property

	Public Property Let DefaultObjectExists(Value)
		Val_DefaultObjectExists = Value
	End Property
	
	'-----------------------------------------------------------------
	'|                  function Gable_Setting                       |
 	'-----------------------------------------------------------------
	Public Function Gable_Setting(ByRef ObjTestCase)
		sMethod = sClass & ".Gable_Setting"
		call logging("Call Method " & sMethod,c_DEBUG,1)
		Dim iRet : iRet = True
		
		Select Case lcase(ObjTestCase.TestValue)
			
			Case "screen_capture_off"
				ObjTestCase.ActualResult = "G-Able setup variable on TestCase for " & ObjTestCase.TestValue & " to [OFF]"
				GAutomate.Control_Capture_Screen = False
			Case "screen_capture_on"
				GAutomate.Control_Capture_Screen = True
				ObjTestCase.ActualResult = "G-Able setup variable on TestCase for " & ObjTestCase.TestValue & " to [ON]"
			Case "activity_checktextonlabel_off"
				GAutomate.Control_CheckTextOnLabel = False			
				ObjTestCase.ActualResult = "G-Able setup variable on TestCase for " & ObjTestCase.TestValue & " to [OFF]"
			Case Else
				iRet = False
				ObjTestCase.ActualResult = "Unknow variable " & ObjTestCase.TestValue
				
		End Select 
		
		Gable_Setting = iRet
	End Function
	
	Public Function Gable_SettingTestCase(ByRef ObjTestCase)
		sMethod = sClass & ".Gable_SettingTestCase"
		call logging("Call Method " & sMethod,c_DEBUG,1)
		Dim iRet : iRet = True
		
		Select Case lcase(ObjTestCase.TestValue)
			
			Case "allkeyword"
				ObjTestCase.ActualResult = "G-Able setup variable on TestCase for " & ObjScenarioValue.Col_Keywords
				ObjTestCaseValue.CommonTestCaseName = ObjScenarioValue.Col_Keywords 
			Case Else
				iRet = False
				ObjTestCase.ActualResult = "Unknow variable " & ObjTestCase.TestValue
				
		End Select 
		
		Gable_SettingTestCase = iRet
	End Function
	'-----------------------------------------------------------------
	'|                    function PreAction                         |
 	'-----------------------------------------------------------------
		'**********************************************************************************************************************************
	'*  Sub Name : WB_PageDown
	'*  Purpose:        press on PageUp
	'*  Arguments:      strValueToEnter, UIName, ExpectedResult
	'* 	Return Value:   
	'* 	Author By		KORAKRIT C.
	'************************************************************************************************************************

	Public Sub WB_ChooseLaunchBrowser(ByRef ObjTestCase)
	'	On Error Resume Next
		
		sMethod = sClass & ".WB_ChooseLaunchBrowser"
		call logging("Call Method " & sMethod,c_DEBUG,1)
		
		SplitVar = split(ObjTestCase.TestValue,";")

		CHOOSE_BROWSER = trim(SplitVar(0))
		URL = trim(SplitVar(1))		
		
		If len(ObjTestCase.TestValue) > 0 Then
			
			'Close all browser
			Me.WB_CloseBrowser(ObjTestCase)	
			
			BrowserType = lcase(CHOOSE_BROWSER)
'			URL = ObjTestCase.TestValue
			
			If lcase(BrowserType) = "ie" Then
				iRet = LaunchIE(URL)
				descript = "IE is launched with url : '"& URL & " "
				wb_browser = "internet"
			ElseIf lcase(BrowserType) = "chrome" Then
				iRet = LaunchChrome(URL)
				descript = "Chrome is launched with url : '"& URL & " "
				wb_browser = "chrome"	
			ElseIf lcase(BrowserType) = "firefox" Then
				iRet = LaunchFirefox(URL)
				descript = "Firefox is launched with url : '"& URL & " "
				wb_browser = "firefox"	
			End If
		Else
			Call FrameWorkErrorCode(51,"")
			
		End If
		
		set DescBrowser = description.Create()
		DescBrowser("openurl").value = URL
		DescBrowser("micclass").value = "Browser"
		
'		For i = 1 To 40
'			Set ObjBrowser = desktop.ChildObjects(DescBrowser)
'			If ObjBrowser.count > 0 Then
'				ObjBrowser(0).sync
'				Exit for
'			End If
'			wait 1
'		Next
		
		ObjTestCase.ActualResult = descript
		
		'On Error goto 0
	End Sub	

	Public Sub WB_LaunchBrowser(ByRef ObjTestCase)
	'	On Error Resume Next
		
		sMethod = sClass & ".WB_LaunchBrowser"
		call logging("Call Method " & sMethod,c_DEBUG,1)
		
		If len(ObjTestCase.TestValue) > 0 Then
			
			'Close all browser
'			Me.WB_CloseBrowser(ObjTestCase)	
			
			BrowserType = lcase(CT_DefaultBrowser)
			URL = ObjTestCase.TestValue
			
			If lcase(BrowserType) = "ie" Then
				iRet = LaunchIE(URL)
				descript = "IE is launched with url : '"& URL & " "
				wb_browser = "internet"
			ElseIf lcase(BrowserType) = "chrome" Then
				iRet = LaunchChrome(URL)
				descript = "Chrome is launched with url : '"& URL & " "
				wb_browser = "chrome"	
			ElseIf lcase(BrowserType) = "firefox" Then
				iRet = LaunchFirefox(URL)
				descript = "Firefox is launched with url : '"& URL & " "
				wb_browser = "firefox"	
			End If
		Else
			Call FrameWorkErrorCode(51,"")
			
		End If
		
		set DescBrowser = description.Create()
		DescBrowser("openurl").value = URL
		DescBrowser("micclass").value = "Browser"
		
'		For i = 1 To 40
'			Set ObjBrowser = desktop.ChildObjects(DescBrowser)
'			If ObjBrowser.count > 0 Then
'				ObjBrowser(0).sync
'				Exit for
'			End If
'			wait 1
'		Next
		
		ObjTestCase.ActualResult = descript
		
		'On Error goto 0
	End Sub	
	Sub WB_CloseBrowser(ByRef ObjTestCase)
		sMethod = sClass & ".WB_CloseBrowser"
		call logging("Call Method " & sMethod,c_DEBUG,1)

		SystemUtil.CloseProcessByName "chrome.exe"
		SystemUtil.CloseProcessByName "iexplore.exe"
		SystemUtil.CloseProcessByName "firefox.exe"
	
		ObjTestCase.ActualResult = "Close all browsers [Chrome, IE, FireFox] "
		
	End Sub	
 	
	Public Sub WB_ClickOnButton (ByRef ObjTestCase)
		sMethod = sClass & ".WB_ClickOnButton"
		call logging("Call Method " & sMethod,c_DEBUG,1)
		
'		ObjTestCase.ObjRepo_Handle_Child.Object.scrollIntoView

'		Set objTestObject = ObjTestCase.ObjRepo_Handle_Child
		
		If ObjTestCase.ObjRepo_Handle_Child.Exist(10) Then
			ObjTestCase.ObjRepo_Handle_Child.Click	
		End If
		
'		ObjTestCase.ObjRepo_Handle_Child.Click	
		
		ObjTestCase.ActualResult = "Clicked on button ["& ObjTestCase.TestValue & "] "
		
	End Sub

	Public Sub WB_Highlight (ByRef ObjTestCase)
		sMethod = sClass & ".WB_Highlight"
		call logging("Call Method " & sMethod,c_DEBUG,1)
		
		ObjTestCase.ObjRepo_Handle_Child.Object.ScrollIntoView
		ObjTestCase.ObjRepo_Handle_Child.Highlight
		
		ObjTestCase.ActualResult = "Highlight on object ["& ObjTestCase.UIName & "] "
		
	End Sub
	
	Public Sub WB_SetTextOnEdit (ByRef ObjTestCase)
		sMethod = sClass & ".WB_SetTextOnEdit"
		call logging("Call Method " & sMethod,c_DEBUG,1)
			
		With ObjTestCase
			.ObjRepo_Handle_Child.set .TestValue
		End With
		
		ObjTestCase.ActualResult = "Enter text ["& ObjTestCase.TestValue & "] "
				
	End Sub


	'**********************************************************************************************************************************
	'*  Sub Name : WB_PageDown
	'*  Purpose:        press on PageUp
	'*  Arguments:      strValueToEnter, UIName, ExpectedResult
	'* 	Return Value:   
	'* 	Author By		KORAKRIT C.
	'************************************************************************************************************************
	Sub WB_PageDown(ByRef ObjTestCase)
		sMethod = sClass & ".WB_PageDown"
		call logging("Call Method " & sMethod,c_DEBUG,1)
	   	
	   	Dim iMaxLoop : iMaxLoop = 10
	   	Dim mySendKeys
	   	Dim iTime : iTime = ObjTestCase.TestValue

	   	
		set mySendKeys = CreateObject("WScript.shell")
		'Try keep focus on page
		ObjTestCase.ObjRepo_Handle_Child.highlight
			
		For Iterator = 1 To iTime	
			mySendKeys.SendKeys("{DOWN 2}")
			wait 1
		Next

		ObjTestCase.ActualResult = "Send KeyPress PageDown ["& iTime &"] "
		
		Set mySendKeys = nothing
		
	End Sub

	'**********************************************************************************************************************************
	'*  Sub Name : WB_PageUp
	'*  Purpose:        press on PageUp
	'*  Arguments:      strValueToEnter, UIName, ExpectedResult
	'* 	Return Value:   
	'* 	Author By		KORAKRIT C.
	'************************************************************************************************************************
	Sub WB_PageUp(ByRef ObjTestCase)
		sMethod = sClass & ".WB_PageUp"
		call logging("Call Method " & sMethod,c_DEBUG,1)
	   	
	   	Dim iMaxLoop : iMaxLoop = 10
	   	Dim i
	   	Dim mySendKeys
	   	Dim iTime : iTime = ObjTestCase.TestValue

	   	
		set mySendKeys = CreateObject("WScript.shell")
		
		'Try keep focus on page
		ObjTestCase.ObjRepo_Handle_Child.highlight
		
		For Iterator = 1 To iTime
			mySendKeys.SendKeys("{UP 2}")			
			wait 1
		Next

		ObjTestCase.ActualResult = "Send KeyPress PageDown ["& iTime &"] "
	
	End Sub
	
	Sub WB_CheckDisabled(ByRef ObjTestCase)
	
		sMethod = sClass & ".WB_CheckDisabled"
		call logging("Call Method " & sMethod,c_DEBUG,1)
		
		Dim iRet
		Dim objTestObject
		Set objTestObject = ObjTestCase.ObjRepo_Handle_Child
		
		If lcase(objTestObject.GetROproperty("micclass")) = "webbutton" or lcase(objTestObject.GetROproperty("micclass")) = "weblist" Then
		  	RoProperty = "disabled"
		  	GetProperty_Value = trim(objTestObject.GetROProperty(RoProperty))
		ElseIf lcase(objTestObject.GetROproperty("micclass")) = "webedit" Then
			RoProperty = "disabled"
			GetProperty_Value = trim(objTestObject.GetROProperty(RoProperty))
		ElseIf lcase(objTestObject.GetROproperty("micclass")) = "image" Then
			RoProperty = "disabled"
			GetProperty_Value = trim(objTestObject.GetROProperty(RoProperty))
			If GetProperty_Value = "" Then
				'rxtDisable
				RoProperty = "file name"
				
				objTestObject.RefreshObject
				GetProperty_Value = trim(objTestObject.GetROProperty(RoProperty))
				If Regex_Test(GetProperty_Value, "Disable|disable|hide|Hide|block|Block") Then
					GetProperty_Value = "True"
				Else
					GetProperty_Value = "False"
				End If
			End If
		Else
			iRet = False
		End if
			
		If lcase(GetProperty_Value) = "true" or GetProperty_Value = "1" Then
			iRet = True
			ObjTestCase.Status = CT_Test_Passed
		Else
			iRet = False
			ObjTestCase.Status = CT_Test_Failed
		End If			
	
		If iRet Then		
			ObjTestCase.ActualResult = "Property value : <b>[Disabled]</b>"
			call logging("Property value : [Disabled]",c_DEBUG,2)
		Else
			ObjTestCase.ActualResult = "Property value : <b>[Enabled]</b>"
			call logging("Property value : [Enabled]",c_DEBUG,2)
		End If 
		
		Set objTestObject = Nothing
		
	End Sub
	
	'**********************************************************************************************************************************
	'*  Function Name : WB_FindItemOnDropDown
	'*  Purpose:        Find values in dropdownlist, returns true if strValueToEnter is "yes" and when was "item" found
	'*					which is valid, return false if strValueToEnter is "no" and when was "item" not found
	'*  Arguments:      strValueToEnter, UIName, ExpectedResult
	'* 	Return Value:   
	'* 	Author By		KORAKRIT C.
	'************************************************************************************************************************
	Sub WB_FindItemOnDropDown(ByRef ObjTestCase)
		sMethod = sClass & ".WB_FindItemOnDropDown"
		call logging("Call Method " & sMethod,c_DEBUG,1)
	   	
	   	With ObjTestCase
	   		' Check strValueToEnter then split text to Item, Condition
	   		If instr(.TestValue,";") > 0 Then 'yes;sometext
	   			SplitVar = split(.TestValue,";")
		  		Condition = SplitVar(0) 
		  		Item = SplitVar(1)
		  	Else
		  		Item = .TestValue
		  		Condition = "yes"
	   		End If
	   		
	   		' Get item to strItemsList
	   		If lcase(.ObjRepo_Handle_Child.GetROproperty("micclass")) = "weblist" Then
				Dim strItemsList : strItemsList = .ObjRepo_Handle_Child.GetROProperty("all items") 'Volvo;Saab;Opel;Audi
				FlagFoundItems = True
			Else
				ObjTestCase.Status = CT_Test_Failed
				FlagFoundItems = False
			End If
			
			' Find Item on List
	   		If lcase(Condition) = "yes" and Regex_Test(strItemsList, Item) and FlagFoundItems Then
	   			call logging("Found Item["&Item&"], Condition[Yes]",c_DEBUG,3)
	   			ObjTestCase.ActualResult = "Found Item["&Item&"], Condition[Yes]"
	   			
	   			ObjTestCase.Status = CT_Test_Passed
			ElseIf lcase(Condition) = "no" and Regex_Test(strItemsList, Item) = False and FlagFoundItems Then
				call logging("Not Found Item["&Item&"], Condition[No]",c_DEBUG,3)
				ObjTestCase.ActualResult = "Not Found Item["&Item&"], Condition[No]"
				
	   			ObjTestCase.Status = CT_Test_Passed
	   		Else
	   			call logging("Cannot check item on list",c_DEBUG,3)
				ObjTestCase.ActualResult =  "Cannot check item on list"
				
				ObjTestCase.Status = CT_Test_Failed
	   		End If
   		
   		End With
	End Sub	

	
	'**********************************************************************************************************************************
	'*  Sub Name : WB_RightClick
	'*  Purpose:        Click right on object
	'*  Arguments:      strValueToEnter, UIName, ExpectedResult
	'* 	Return Value:   
	'* 	Author By		KORAKRIT C.
	'************************************************************************************************************************
	Sub WB_RightClick(ByRef ObjTestCase)
		sMethod = sClass & ".WB_RightClick"
		call logging("Call Method " & sMethod,c_DEBUG,1)	   	
		
		If lcase(trim(ObjTestCase.TestValue)) <> "yes" Then
			objTestObject.SetToProperty "innertext",ObjTestCase.TestValue
		End If
		
	   	
   		ObjTestCase.ObjRepo_Handle_Child.RightClick
   		
   		ObjTestCase.ActualResult = "RightClick on object ["& ObjTestCase.TestValue & "] "
	
	End Sub

	'**********************************************************************************************************************************
	'*  Sub Name : 	WB_GetText()
	'*  Purpose:            To get  text in label (WebEdit or WebLabel)
	'*  Arguments:          strValueToEnter,UIName,ExpectedResult
	'* Return Value:        GetText 
	'**********************************************************************************************************************************
	Sub WB_GetText(ByRef ObjTestCase)
		sMethod = sClass & ".WB_GetText"
		call logging("Call Method " & sMethod,c_DEBUG,1)
		
		strValueToEnter = ObjTestCase.TestValue
		
		If ObjTestCase.ObjRepo_micclass_type = "webedit" or _
		   ObjTestCase.ObjRepo_micclass_type = "webbutton" Then
		  	RoProperty="value"
		 ElseIf  ObjTestCase.ObjRepo_micclass_type = "static" then
			RoProperty="text"
		Else
			RoProperty="innertext"
  		End if
  		
  		'Fixed problem Framework terminate in case can't access object on application
  		Environment(strValueToEnter) = Empty
  		
  		Set obj = eval(ObjTestCase.ObjRepo_FullName)
  		obj.Object.scrollIntoView
  		Environment(strValueToEnter) = obj.GetROProperty(RoProperty)
  		
  		'Environment(strValueToEnter) = ObjTestCase.ObjRepo_Handle_Parent.ObjRepo_Handle_Child.GetROProperty(RoProperty)
  				
		ObjTestCase.Status = CT_Test_Passed
		ObjTestCase.ActualResult ="Get text ["&Environment(strValueToEnter)&"]"
		
	End Sub

	
	'**********************************************************************************************************************************
	'*  Sub Name : WB_SelectRadioButton()
	'*  Purpose:        To select radio button by value
	'*  Arguments:      strValueToEnter,UIName,ExpectedResult
	'* Return Value:    Flag 1 or -1 
	'**********************************************************************************************************************************
	Sub WB_SelectRadioButton(ByRef ObjTestCase)
		sMethod = sClass & ".WB_SelectRadioButton"
		call logging("Call Method " & sMethod,c_DEBUG,1)		
		
		strValueToEnter = ObjTestCase.TestValue
		Set objTestObject = ObjTestCase.ObjRepo_Handle_Child
		
		If objTestObject.GetROproperty("micclass")="WinRadioButton" Then
           objTestObject.Set 
		ElseIf objTestObject.GetROproperty("micclass")="WebRadioGroup" Then
		   objTestObject.Select strValueToEnter
		ElseIf objTestObject.GetROproperty("micclass")="WebElement" Then
			If lcase(objTestObject.GetROproperty("html tag"))="label" Then
				objTestObject.SetToProperty "xpath","//DIV[normalize-space()="&strValueToEnter&"]/LABEL[1]"
			ElseIf lcase(objTestObject.GetROproperty("html tag"))="span" Then
				objTestObject.SetToProperty "innertext",strValueToEnter	
			End If
			objTestObject.Click
  		End if
		
		ObjTestCase.ActualResult = "Select ["& strValueToEnter & "] on radio ["& ObjTestCase.UIName & "] "
		
	End Sub

	'**********************************************************************************************************************************
	'*  Sub Name : WB_SelectDropdown()
	'*  Purpose:        To select dropdown  by value
	'*  Arguments:      strValueToEnter,UIName,ExpectedResult
	'* Return Value:    Flag 1 or -1 
	'**********************************************************************************************************************************
	Sub WB_SelectDropdown(ByRef ObjTestCase)
'		On Error Resume Next
		sMethod = sClass & ".WB_SelectDropdown"
		call logging("Call Method " & sMethod,c_DEBUG,1)	
'		Dim strCurrentValue
		
		strValueToEnter = trim(ObjTestCase.TestValue)
		Set objTestObject = ObjTestCase.ObjRepo_Handle_Child
		
		If ObjTestCase.ObjRepo_micclass_type = "weblist" or _
           ObjTestCase.ObjRepo_micclass_type = "winlistview" Then
'           	For i = 1 To 5 Step 1
'           		If len(All_ItemList) > 0 Then
'           			call logging("Found All items list : "&All_ItemList,c_DEBUG,1)	
'           			Exit For
'           		Else
'           			wait 1
'           			objTestObject.RefreshObject
'           			call logging("Wait for load item list",c_DEBUG,1)	
'           		End If
           	

           	If instr(objTestObject.GetROProperty("all items"),strValueToEnter) > 0 Then
           		strValueToEnter = cstr(strValueToEnter)
           		objTestObject.Select strValueToEnter
'           		For i = 1 To 3 Step 1
'           		    If Err.Number <> 0 Then
'           		    	call logging("Error Found : " & Err.Description,c_DEBUG,1)
'           				wait 3
'           				Err.Clear
'           				objTestObject.Select strValueToEnter
'					Else
'						Exit For	
'           			End If		        			
'           		Next

				wait 5
				objTestObject.RefreshObject
				strCurrentValue = objTestObject.GetROProperty("selection")
				ObjTestCase.Status = CT_Test_Passed
			Else
				ObjTestCase.Status = CT_Test_Failed
				descript = "Excel Data : <b>["&strValueToEnter&"]</b> <font color=""red"">not found</font> app item list : <b>["&All_ItemList&"]</b>"
           	End If			
		Else
			objTestObject.Click
			
			UIName_List="DropDownList_Value_Btn"
			ObjectText_List = ObjTestCase.Mapping_Object_Handle_External(UIName_List)
			
			set List_Object=Eval(ObjectText_List)
			List_Object.SetToProperty "innertext",strValueToEnter
			List_Object.Click
			strCurrentValue = objTestObject.GetROProperty("innertext")
			
			If strCurrentValue = strValueToEnter Then
	  			ObjTestCase.Status = CT_Test_Passed
	  		Else
	  			descript = "Excel Data : <b>["&strValueToEnter&"]</b> <font color=""red"">not match</font> app value : <b>["&objTestObject.GetROProperty("value")&"]</b>"
	  			ObjTestCase.Status = CT_Test_Failed
	  		End If
	  		
  		End if
  		
  		'Check
  		
'  		If strCurrentValue = strValueToEnter Then
'  			ObjTestCase.Status = CT_Test_Passed
'  		Else
'  			descript = "Excel Data : <b>["&strValueToEnter&"]</b> <font color=""red"">not match</font> app value : <b>["&objTestObject.GetROProperty("value")&"]</b>"
'  			ObjTestCase.Status = CT_Test_Failed
'  		End If
  		
		ObjTestCase.ActualResult = "Select ["& strValueToEnter & "] on dropdown ["& ObjTestCase.UIName & "] "
		
	End Sub

	'**********************************************************************************************************************************
	'*  Sub Name : WB_SelectCheckBox()
	'*  Purpose:        To select checkbox  by value
	'*  Arguments:      strValueToEnter,UIName,ExpectedResult
	'* Return Value:    Flag 1 or -1 
	'**********************************************************************************************************************************
	Sub WB_SelectCheckBox(ByRef ObjTestCase)
		sMethod = sClass & ".WB_SelectCheckBox"
		call logging("Call Method " & sMethod,c_DEBUG,1)
		
		strValueToEnter = ObjTestCase.TestValue
		Set objTestObject = ObjTestCase.ObjRepo_Handle_Child
		
		objTestObject.set strValueToEnter

		ObjTestCase.ActualResult = "Select ["& strValueToEnter & "] on checkbox ["& ObjTestCase.UIName & "] "
		
	End Sub
	
	'**********************************************************************************************************************************
	'*  Sub Name : WB_CheckTextOnLabel()
	'*  Purpose:        To compare text on Excel data and App Label text is match 
	'*  Arguments:      strValueToEnter,UIName,ExpectedResult
	'* 	Return Value:   Flag True or False
	'* 	Author By		ANUPOL H. (AMS-GABLE)
	'**********************************************************************************************************************************
	Sub WB_CheckTextOnLabel(ByRef ObjTestCase)
		sMethod = sClass & ".WB_CheckTextOnLabel"
		call logging("Call Method " & sMethod,c_DEBUG,1)
		
		Dim strRegex
		
		strValueToEnter = ObjTestCase.TestValue
		Set objTestObject = ObjTestCase.ObjRepo_Handle_Child	
		
		If lcase(objTestObject.GetROproperty("micclass")) = "webedit" or lcase(objTestObject.GetROproperty("micclass")) = "webbutton" Then
		  	RoProperty="value"
		'Add by Arthur
		ElseIf lcase(objTestObject.GetROproperty("micclass")) = "static"  Then
			RoProperty= "text"
		Else
			RoProperty="innertext"
  		End if
  		
  		'Get Text
  		get_text = trim(objTestObject.GetROProperty(RoProperty))
  		
  		'Replace chr(160) to chr(32)
  		get_text        = Replace(get_text, vbCr, "")
		get_text        = Replace(get_text, vbLf, "")
  		get_text        = trim(replace(get_text,chr(160),chr(32)))
		strValueToEnter = trim(replace(strValueToEnter,chr(160),chr(32)))
		
  		'Check Regular is on
  		'If objTestObject.GetROProperty(RoProperty).RegularExpression Then
  		'	Flag_Reg = True
  		'Else
  		'	Flag_Reg = False
  		'End If
		
		'CompareVal = StrComp(get_text, strValueToEnter, vbTextCompare)
		strRegex = replace(strValueToEnter,".","\.")

		If get_text = trim(strValueToEnter) Then
			ObjTestCase.Status = CT_Test_Passed
			iRet = True
		'ElseIf StrComp(get_text, strValueToEnter, vbTextCompare) Then 'No case sensitive
		'	ObjTestCase.Status = CT_Test_Passed
		'	iRet = True
		'ElseIf Regex_Test(get_text, "^" & strRegex & "$") Then 'Contain value on string
		ElseIf instr(get_text,strValueToEnter) > 0 Then 'Contain value on string
			ObjTestCase.Status = CT_Test_Passed
			iRet = True		
		ElseIf Regex_Test(get_text, strRegex) Then 'Contain value on string
			ObjTestCase.Status = CT_Test_Passed
			iRet = True
		Else
			ObjTestCase.Status = CT_Test_Failed
			iRet = False
		End If
		
		If iRet Then
			ObjTestCase.ActualResult ="Excel Data : <b>["&strValueToEnter&"]</b> match app label : <b>["&get_text&"]</b>"
		Else
			ObjTestCase.ActualResult ="Excel Data : <b>["&strValueToEnter&"]</b> not match app label : <b>["&get_text&"]</b>"
		End If
		
		set objTestObject = Nothing
			
	End Sub
	
	'**********************************************************************************************************************************
	'*  Function Name :	OperationNumber()
	'*  Purpose:        Operation 2 number and add value in Environment("UserDefineVariable") 
	'*  Arguments:      strValueToEnter,Operation
	'* 	Return Value:   Flag True or False
	'* 	Author By		ANUPOL H. (AMS-GABLE)
	'**********************************************************************************************************************************
	Function OperationNumber(strValueToEnter,Operation)
		On Error Resume Next
		
		Set objRE = New RegExp
		objRE.Pattern    = "^(?=.)([+-]?(0|([1-9](\d*|\d{0,2}(,\d{3})*)))?(\.([0-9]+))?)$"
		
		splitVar = split(strValueToEnter,";") 
		Variable1 = splitVar(0)
		Variable2 = splitVar(1)
		
		If objRE.Test(Variable1)=True Then
			Variable1 = splitVar(0)
		Else
			'Regex by Arthur
			Variable1 = Regex_Match(Environment(Variable1), "[0-9.,]+")
		End If
		
		If objRE.Test(Variable2)=True Then
			Variable2 = splitVar(1)
		Else
			'Regex by Arthur
			Variable2 = Regex_Match(Environment(Variable2), "[0-9.,]+")
		End If	
		
		call logging("Variable1 : "&splitVar(0)& " value :" & Variable1,c_DEBUG,3)
		call logging("Variable2 : "&splitVar(1)& " value :" & Variable2,c_DEBUG,3)
		call logging("Variable3 : "&splitVar(2) ,c_DEBUG,3)
			
		If objRE.Test(Variable1)=True and objRE.Test(Variable2)=True Then
			Val_1=cdbl(Variable1)
			Val_2=cdbl(Variable2)
			'SetVal=FormatNumber(strValueToEnter,,,,0)
			Environment(splitVar(2))=FormatNumber(Eval(Val_1&Operation&Val_2),,-1)
			call logging("Environment("""& splitVar(2)&""") = " &Environment(splitVar(2)),c_DEBUG,3)
			descript=Val_1&Operation&Val_2&"  / Set Environment("""& splitVar(2)&""") = " &Environment(splitVar(2))
			Flag= "True;"&descript
		Else
			Environment(splitVar(2))="::N/A"
			Flag="False;Error this Environment variable not number / Set Environment("""& splitVar(2)&""") = " &Environment(splitVar(2))			
		End If
		Set objRE = nothing
		
		OperationNumber = Flag
		
	End Function

	'**********************************************************************************************************************************
	'*  Function Name :	WB_PlusNumber()
	'*  Purpose:        Plus 2 number and add value in Environment("UserDefineVariable") 
	'*  Arguments:      strValueToEnter
	'* 	Return Value:   Flag True or False
	'* 	Author By		ANUPOL H. (AMS-GABLE)
	'**********************************************************************************************************************************
	Function WB_PlusNumber(ByRef ObjTestCase)
		sMethod = sClass & ".WB_PlusNumber"
		call logging("Call Method " & sMethod,c_DEBUG,1)
		
		Operation="+"
		ResultVal = OperationNumber(ObjTestCase.TestValue,Operation)
		Flag = split(ResultVal,";")		
		If Flag(0) = "True" Then
			call logging(Flag(1),c_DEBUG,3)
			descript=Flag(1)
			ObjTestCase.Status = CT_Test_Passed
		Else
			call logging(Flag(1),c_DEBUG,3)
			descript=Flag(1)
			ObjTestCase.Status = CT_Test_Failed
		End If

		ObjTestCase.ActualResult = descript
		
	End Function

	'**********************************************************************************************************************************
	'*  Function Name :	WB_MinusNumber()
	'*  Purpose:        Minus 2 number and add value in Environment("UserDefineVariable") 
	'*  Arguments:      strValueToEnter ex.(20000;Environment("gettext");Environment("result"))
	'* 	Return Value:   Flag True or False
	'* 	Author By		ANUPOL H. (AMS-GABLE)
	'**********************************************************************************************************************************
	Function WB_MinusNumber(ByRef ObjTestCase)
		sMethod = sClass & ".WB_MinusNumber"
		call logging("Call Method " & sMethod,c_DEBUG,1)
		
		Operation="-"
		ResultVal = OperationNumber(ObjTestCase.TestValue,Operation)
		Flag = split(ResultVal,";")		
		If Flag(0) = "True" Then
			call logging(Flag(1),c_DEBUG,3)
			descript=Flag(1)
			ObjTestCase.Status = CT_Test_Passed
		Else
			call logging(Flag(1),c_DEBUG,3)
			descript=Flag(1)
			ObjTestCase.Status = CT_Test_Failed
		End If

		ObjTestCase.ActualResult = descript
		
	End Function
	
	'**********************************************************************************************************************************
	'*  Function Name :	WB_MultiplyNumber()
	'*  Purpose:        Multiply 2 number and add value in Environment("UserDefineVariable") 
	'*  Arguments:      strValueToEnter
	'* 	Return Value:   Flag True or False
	'* 	Author By		ANUPOL H. (AMS-GABLE)
	'**********************************************************************************************************************************
	Function WB_MultiplyNumber(ByRef ObjTestCase)
		sMethod = sClass & ".WB_MultiplyNumber"
		call logging("Call Method " & sMethod,c_DEBUG,1)
		
		Operation="*"
		ResultVal = OperationNumber(ObjTestCase.TestValue,Operation)
		Flag = split(ResultVal,";")		
		If Flag(0) = "True" Then
			call logging(Flag(1),c_DEBUG,3)
			descript=Flag(1)
			ObjTestCase.Status = CT_Test_Passed
		Else
			call logging(Flag(1),c_DEBUG,3)
			descript=Flag(1)
			ObjTestCase.Status = CT_Test_Failed
		End If

		ObjTestCase.ActualResult = descript
	
	End Function
	

	'**********************************************************************************************************************************
	'*  Function Name :	WB_DivideNumber()
	'*  Purpose:        Divide 2 number and add value in Environment("UserDefineVariable")
	'*  Arguments:      strValueToEnter
	'* 	Return Value:   Flag True or False
	'* 	Author By		ANUPOL H. (AMS-GABLE)
	'**********************************************************************************************************************************
	Function WB_DivideNumber(ByRef ObjTestCase)
	  	sMethod = sClass & ".WB_DivideNumber"
		call logging("Call Method " & sMethod,c_DEBUG,1)
		
		Operation="/"
		ResultVal = OperationNumber(ObjTestCase.TestValue,Operation)
		Flag = split(ResultVal,";")		
		If Flag(0) = "True" Then
			call logging(Flag(1),c_DEBUG,3)
			descript=Flag(1)
			ObjTestCase.Status = CT_Test_Passed
		Else
			call logging(Flag(1),c_DEBUG,3)
			descript=Flag(1)
			ObjTestCase.Status = CT_Test_Failed
		End If

		ObjTestCase.ActualResult = descript
		
	End Function


	Sub WB_CheckProperty(ByRef ObjTestCase)
		sMethod = sClass & ".WB_CheckProperty"
		call logging("Call Method " & sMethod,c_DEBUG,1)
		
		strValueToEnter   = ObjTestCase.TestValue
		Set objTestObject = ObjTestCase.ObjRepo_Handle_Child
		
		If instr(strValueToEnter,";") > 0 Then
		
			SplitVar = split(strValueToEnter,";")
			PropertyType = trim(SplitVar(0))
			InputText = trim(SplitVar(1))
				
			GetProperty_Value = trim(objTestObject.GetROProperty(PropertyType))
			If GetProperty_Value = InputText and GetProperty_Value <> "" Then
				iRet = True
			End If			
	  		  				
			If iRet = True Then		
				descript ="Excel Data : <b>["&InputText&"]</b> match app property value : <b>["&GetProperty_Value&"]</b>"
			Else
				descript ="Excel Data : <b>["&InputText&"]</b> not match app property value : <b>["&GetProperty_Value&"]</b>"
			End If 
		
		Else
			descript= "invalid input value"	
			call logging(descript,c_DEBUG,3)
		End If

		ObjTestCase.ActualResult = descript
	End Sub

	'**********************************************************************************************************************************
	'*  Sub Name : WB_SaveFile
	'*  Purpose:        SaveFile on Windows Popup
	'*  Arguments:      strValueToEnter, UIName, ExpectedResult
	'* 	Return Value:   
	'* 	Author By		KORAKRIT C.
	'************************************************************************************************************************
	 Sub WB_SaveFile(ByRef ObjTestCase)
		sMethod = sClass & ".WB_SaveFile"
		call logging("Call Method " & sMethod,c_DEBUG,1)
	  	
		Dim descBrowser, descActiveX, descWinObject, descDialog, descWinButton
		Dim objPDFPage, objOKBtn
		Dim Path, Filename
		Dim strValueToEnter
		Dim iRet : iRet = False
		
		strValueToEnter   = ObjTestCase.TestValue
		
		'strValueToEnter = Path;Filename.exe
		TempArray = Split(strValueToEnter, ";")
		Path = lcase(TempArray(0))
		Filename = TempArray(1)
		TempFilename = Split(Filename, ".")
		Filename = TempFilename(0)
		FileType = TempFilename(1)
		
		Set descBrowser = Description.Create()
		descBrowser("micclass").Value = "Browser"
		descBrowser("CreationTime").Value = ".*"
		
		Set descActiveX = Description.Create()
		descActiveX("micclass").Value = "ActiveX"
		descActiveX("acx_name").Value = "Adobe PDF Reader"
		descActiveX("progid").Value = "AcroPDF.PDF.1"
		descActiveX("nativeclass").Value = "ATL.*"
	
		Set descWinObject = Description.Create()
		descWinObject("micclass").Value = "WinObject"
		descWinObject("text").Value = "AVPageView"
		descWinObject("regexpwndclass").Value = "AVL_AVView"
		descWinObject("nativeclass").Value = "AVL_AVView"
		
		Set descDialog = Description.Create()
		descDialog("micclass").Value = "Dialog"
		descDialog("text").Value = "Adobe Reader|Save As|Save a Copy..."
		
		Set descWinButton_OK = Description.Create()
		descWinButton_OK("micclass").Value = "WinButton"
		descWinButton_OK("text").Value = "OK"
		descWinButton_OK("nativeclass").Value = "Button"
		
		Set descWinButton_Save = Description.Create()
		descWinButton_Save("micclass").Value = "WinButton"
		descWinButton_Save("text").Value = "Save|&Save"
		descWinButton_Save("nativeclass").Value = "Button"
		
		Set descWinEdit = Description.Create()
		descWinEdit("micclass").Value = "WinEdit"
		descWinEdit("nativeclass").Value = "Edit"
		descWinEdit("attached text").Value = "File &name:|File name:"
		
		'Object PDF Page
		Set objPDFPage = Browser(descBrowser).ActiveX(descActiveX).WinObject(descWinObject)
		
		'Object OK Button on Adobe Reader ActiveX Alert
		Set objOKBtn = Dialog(descDialog).WinButton(descWinButton_OK)
		
		'Object Textbox of Filename
		Set objWinEdit = Dialog(descDialog).WinEdit(descWinEdit)
	
		'Object Save Button on Save As Windows
		Set objSaveBtn = Dialog(descDialog).WinButton(descWinButton_Save)
		
		'Object
		'Set objWinComboBox = Browser(descBrowser).Dialog(descDialog).WinComboBox("Save as type:").Select "Adobe PDF Files (*.pdf)"

		'Get currrent datetime format YYYY-MM-DD-HHMMSI
		DateTime = ReportResult.CurrentDateTime()
		
		'When Popup Alert, then Click ok
		If objOKBtn.Exist(2) Then
			objOKBtn.Click
			Set objOKBtn = Nothing
		End If
		
		'Waiting for Save Button Object
		'Then Save File
		If objSaveBtn.Exist(8) Then
			If Path <> "path" or Path <> "default" <> Path = "yes" Then
				'Goto Path
				objWinEdit.Set Path
				objSaveBtn.Click
			End If
			objWinEdit.Set Filename&"_"&DateTime&"."&FileType
			objSaveBtn.Click
			iRet = True
		End If
		
		If iRet Then
			ObjTestCase.Status = CT_Test_Passed
			descript = "Save File ["&FileName&"_"&DateTime&"."&FileType&"] "
		Else
			ObjTestCase.Status = CT_Test_Failed
			descript = "Save File ["&FileName&"_"&DateTime&"."&FileType&"] "
		End If
		
		ObjTestCase.ActualResult = descript

		wait 7
		SystemUtil.CloseProcessByName "AcroRd32.exe"
		
	End Sub

	'**********************************************************************************************************************************
	'*  Sub Name : WB_CheckEnabled
	'*  Purpose:        check the object is enabled
	'*  Arguments:      strValueToEnter, UIName, ExpectedResult
	'* 	Return Value:   
	'* 	Author By		KORAKRIT C.
	'************************************************************************************************************************
	Sub WB_CheckEnabled(ByRef ObjTestCase)
		sMethod = sClass & ".WB_CheckProperty"
		call logging("Call Method " & sMethod,c_DEBUG,1)

		iRet = False
		
		strValueToEnter   = ObjTestCase.TestValue
		Set objTestObject = ObjTestCase.ObjRepo_Handle_Child
		
		If lcase(objTestObject.GetROproperty("micclass")) = "webbutton" or lcase(objTestObject.GetROproperty("micclass")) = "weblist" Then
		  	RoProperty = "disabled"
		  	GetProperty_Value = trim(objTestObject.GetROProperty(RoProperty))
		ElseIf lcase(objTestObject.GetROproperty("micclass")) = "webedit" Then
			RoProperty = "disabled"
			GetProperty_Value = trim(objTestObject.GetROProperty(RoProperty))
		ElseIf lcase(objTestObject.GetROproperty("micclass")) = "image" Then
			RoProperty = "disabled"
			GetProperty_Value = trim(objTestObject.GetROProperty(RoProperty))
			If GetProperty_Value = "" Then
				'rxtDisable
				RoProperty = "file name"
				GetProperty_Value = trim(objTestObject.GetROProperty(RoProperty))
				If Regex_Test(GetProperty_Value, "Disable|disable|hide|Hide") Then
					GetProperty_Value = "True"
				Else
					GetProperty_Value = "False"
				End If
			End If
		Else
			iRet = False
			ObjTestCase.Status = CT_Test_Failed
  		End if
  		
		If lcase(GetProperty_Value) = "false" or GetProperty_Value = "0" Then
			iRet = True
			ObjTestCase.Status = CT_Test_Passed
		Else
			iRet = False
			ObjTestCase.Status = CT_Test_Failed
		End If			

		If iRet Then
			descript = "Property value : <b>[Enabled]</b>"
			call logging("Property value : [Enabled]",c_DEBUG,2)
		Else
			descript = "Property value : <b>[Disabled]</b>"
			call logging("Property value : [Disabled]",c_DEBUG,2)
		End If 

		ObjTestCase.ActualResult = descript
		
	End Sub


	'**********************************************************************************************************************************
	'*  Sub Name : WB_WaitUntilFindObj
	'*  Purpose:        wait until find object
	'*  Arguments:      strValueToEnter,UIName,ExpectedResult
	'* 	Return Value:   Flag True or False
	'* 	Author By		ANUPOL H. (AMS-GABLE)
	'************************************************************************************************************************
	Sub WB_WaitUntilFindObj(ByRef ObjTestCase)
		
		sMethod = sClass & ".WB_WaitUntilFindObj"
		call logging("Call Method " & sMethod,c_DEBUG,1)
		
		Dim check_ObjExist
	  	iRet = False
	  	
	  	strValueToEnter = ObjTestCase.TestValue
		Set objTestObject = ObjTestCase.ObjRepo_Handle_Child
		
		objTestObject.highlight
	  	
	  	descript= "found expect object [" & ObjTestCase.UIName & "]"
	  	
		ObjTestCase.ActualResult = descript
	End Sub

	'**********************************************************************************************************************************
	'*  Sub Name : WB_WaitUntilNotFindObj
	'*  Purpose:        wait until not find object
	'*  Arguments:      strValueToEnter,UIName,ExpectedResult
	'* 	Return Value:   Flag True or False
	'* 	Author By		ANUPOL H. (AMS-GABLE)
	'************************************************************************************************************************
	Sub WB_WaitUntilNotFindObj(ByRef ObjTestCase)
		sMethod = sClass & ".WB_WaitUntilNotFindObj"
		call logging("Call Method " & sMethod,c_DEBUG,1)
		
		Dim check_ObjExist, ObjectText, strValueToEnter
		
		ObjectText = ObjTestCase.uiname
		strValueToEnter = ObjTestCase.TestValue
		
	  	If instr(strValueToEnter,";")>0 Then	
	  		SplitVar = split(strValueToEnter,";")
	  		waittime = SplitVar(0) 
	  		replacetext = SplitVar(1) 
	  		
			Set objTestObject = ObjTestCase.ObjRepo_Handle_Child
			
			If len(replacetext) > 0 and lcase(replacetext) <>"yes" Then
				If instr(lcase(ObjectText),".page(") > 0 Then
					RoProperty="innertext"
				Else
					RoProperty="text"
				End If
			End If
			
			call logging("Wait object ["&ObjectText&"] for "&waittime&" second",c_DEBUG,3)
			
			For wait_second = 1 To waittime Step 1
				objTestObject.RefreshObject()
				check_ObjExist = objTestObject.exist(1)			
				waittime_countdown = (waittime+1) - wait_second
				PopupAlert sModule,"Wait ["&UIName&"] Object Remain "&waittime_countdown-1 &" second",""
				call logging("wait time "&waittime_countdown &" second",c_DEBUG,3)
				
				If  check_ObjExist = False Then
					
					Err.Clear
					Flag = 1
					Exit for
				End If	
			Next
		End If	
		
		If Flag = 1 Then
			ObjTestCase.Status = CT_Test_Passed
			descript= "not found expect object ["&ObjectText&"]"
		Else
			ObjTestCase.Status = CT_Test_Failed
			descript= "found expect object ["&ObjectText&"]"
		End If
		
		ObjTestCase.ActualResult = descript
		
	End Sub

	'**********************************************************************************************************************************
	'*  Sub Name :	WB_WaitIdle()
	'*  Purpose:        Set timeout for wait  
	'*  Arguments:      strValueToEnter
	'* 	Return Value:   Flag True or False
	'* 	Author By		THAKOON L. (AMS-GABLE)
	'************************************************************************************************************************
	Sub WB_WaitIdle(ByRef ObjTestCase)
		sMethod = sClass & ".WB_WaitIdle"
	  	call logging("sModule " & sMODULE,c_DEBUG,3)
	  	
	  	strValueToEnter = ObjTestCase.TestValue
'		Set objTestObject = ObjTestCase.ObjRepo_Handle_Child
		
		wait strValueToEnter
		
		descript="wait <b>["&strValueToEnter& "]</b> second"
		
		ObjTestCase.ActualResult = descript
	End Sub
	

	'**********************************************************************************************************************************
	'*  Function Name : 	WB_TypeTextOnEdit()
	'*  Purpose:            To sendkey text
	'*  Arguments:          strValueToEnter
	'* Return Value:        Flag 1 or -1
	'**********************************************************************************************************************************
	Sub WB_TypeTextOnEdit(ByRef ObjTestCase)
		sMethod = sClass & ".WB_SendKeys"
	  	call logging("sModule " & sMODULE,c_DEBUG,3)
	  	
	  	strValueToEnter   = ObjTestCase.TestValue
		Set objTestObject = ObjTestCase.ObjRepo_Handle_Child
			
		objTestObject.Click		
		wait 1
		Set oShell = CreateObject("WScript.Shell")
		GetTextEdit = objTestObject.GetRoProperty("value")
		
		If len(GetTextEdit) > 0 Then
			objTestObject.Click
			wait 1
			oShell.SendKeys("{END}")
			For i = 1 To len(GetTextEdit) Step 1
				oShell.SendKeys("{BACKSPACE}")
			Next
		End If

		Set objRE = New RegExp		
			With objRE
			.Pattern    = "[ก-๙]"
			.IgnoreCase = True
			.Global     = False
		End With		
			
		If objRE.Test(strValueToEnter) = True  Then
			oShell.SendKeys("{~}")
			oShell.SendKeys(strValueToEnter)
			oShell.SendKeys("{~}")
		Else
			oShell.SendKeys(strValueToEnter)
		End If
				
		Set oShell = Nothing
	
		descript = "Type text ["& strValueToEnter & "] completely"
		ObjTestCase.ActualResult = descript
		
	End Sub

	'**********************************************************************************************************************************
	'*  sub Name : 	WB_SendKeys()
	'*  Purpose:            To send key or text
	'*  Arguments:          strValueToEnter
	'* Return Value:        Flag 1 or -1
	'**********************************************************************************************************************************
	sub WB_SendKeys(ByRef ObjTestCase)
		sMethod = sClass & ".WB_SendKeys"
	  	call logging("sModule " & sMODULE,c_DEBUG,3)
	  	
	  	strValueToEnter   = ObjTestCase.TestValue
		Set objTestObject = ObjTestCase.ObjRepo_Handle_Child
			

		Set oShell = CreateObject("WScript.Shell")
'		objTestObject.Click
		
		On Error Resume next
		oShell.SendKeys strValueToEnter
		
		If Err.Number <> 0 Then
			Err.clear
		End If
		
		On Error goto 0
		
		Set oShell = Nothing
		
		descript = "send key or text ["& strValueToEnter & "] completely"
		
		ObjTestCase.ActualResult = descript
		
		'Close because sometime found process run same case shortkey
		SystemUtil.CloseProcessByName "calc.exe"

	End sub

	Sub WB_MouseOverOn (ByRef ObjTestCase)
		sMethod = sClass & ".WB_MouseOverOn"
		Call Logging("Call Method " & sMethod, c_DEBUG,1)
		
		ObjTestCase.ObjRepo_Handle_Child.HoverTap

		ObjTestCase.ActualResult = "Mouseover on object ["& ObjTestCase.UIName & "] "
	End Sub
	
	Public Function PreAction(ByRef ObjTestCase)
		sMethod = sClass & ".PreAction"
		call logging("Call Method " & sMethod,c_DEBUG,1)
		
		Dim iRet : iRet = True
		Dim iMaxLoop : iMaxLoop = 2
		Dim ObjectHandleChild
		Dim ObjectHandleParent
		Dim checkValue
		Dim FlagFound
		Dim SpecialCharecterForRegular
		
		call logging("   - Err.Number = [" & err.number & "]",c_DEBUG,1)		
		
		set mySendKeys = CreateObject("WScript.shell")
		
		set ObjectHandleChild  = ObjTestCase.ObjRepo_Handle_Child
		set ObjectHandleParent = ObjTestCase.ObjRepo_Handle_Parent

		'PreActiion Activity
		Select Case ObjTestCase.Activity
'			Case "WB_LaunchBrowser"
'				ObjTestCase.ObjRepo_Child.Exist(Me.DefaultObjectExists)
'			Case "WB_ClickOnButton"
'				ObjTestCase.ObjRepo_Child.Exist(Me.DefaultObjectExists)
			Case "MC_LunchApp","WB_WaitIdle"
				Call Logging("Skip Activity [" & ObjTestCase.Activity & "] on Pre-Action",c_DEBUG,3)
			Case "WB_GetText"
				Call Logging("Skip Activity [" & ObjTestCase.Activity & "] on Pre-Action",c_DEBUG,3)
			Case "MC_SetTextOnEdit", "MC_SetCheckBoxOnOff"
				Call Logging("Skip Activity [" & ObjTestCase.Activity & "] on Pre-Action",c_DEBUG,3)			
			Case Else
											
											
				Do
					'Set runtime value on Ojbect
					call logging("ObjTestCase.ObjRepo_micclass_type : [" & ObjTestCase.ObjRepo_micclass_type & "]",c_DEBUG,3)
					Select Case ObjTestCase.ObjRepo_micclass_type
						Case "winbutton"
							wait 3
						Case "link"
							' Data != Yes, 20;Yes
							If lcase(ObjTestCase.TestValue) <> CT_Flag_Yes and Regex_Test(lcase(ObjTestCase.TestValue),"[\d];yes") = False Then
								ObjectHandleChild.SetToProperty "innertext", ObjTestCase.TestValue
								ObjectHandleChild.SetToProperty "text", ObjTestCase.TestValue
							End If
						Case "webbutton"
							If lcase(ObjTestCase.TestValue) <> CT_Flag_Yes and Regex_Test(lcase(ObjTestCase.TestValue),"[\d];yes") = False Then
								ObjectHandleChild.SetToProperty "innertext", ObjTestCase.TestValue
							End If
						Case "webelement"	
							If lcase(ObjTestCase.TestValue) <> CT_Flag_Yes and Regex_Test(lcase(ObjTestCase.TestValue),"[\d];yes") = False Then
								ObjectHandleChild.SetToProperty "innertext", ObjTestCase.TestValue
							End If
						'Case "image"
						'	If lcase(ObjTestCase.UIName) = lcase("VSB_Detai_btn") Then
						'		ObjectHandleChild.SetToProperty "xpath", "//a[contains(@href,'"&trim(replace(replace(ObjTestCase.TestValue,"-","0",1,1),"-",""))&"')]/img"
						'	End If
						
						
						Case "mobilelabel"
							'Skip assing mcindex for some object
							If lcase(ObjTestCase.TestValue) = lcase(CT_SkipMapping_MCIndex) Then
								call logging("   Skip assign mcindex on runtime for Object : " & ObjTestCase.UIName & " on Case 1" ,c_DEBUG,3)
							
							ElseIf ObjTestCase.ObjRepo_Handle_Child.GetTOProperty("mcindex")     = 0 or _
                              (len(ObjTestCase.ObjRepo_Handle_Child.GetTOProperty("resourceid")) > 0 and ObjTestCase.UIName <> "mobile_label_txt") Then
								call logging("   Skip assign mcindex on runtime for Object : " & ObjTestCase.UIName & " on Case 2" ,c_DEBUG,3)
								
								strValueToEnter = ObjTestCase.TestValue
								
								If instr(ObjTestCase.TestValue,"\n") > 0 Then
									
										strValueToEnter = replace(strValueToEnter,"\n", chr(10))
									
								End If
								
								ObjTestCase.ObjRepo_Handle_Child.SetTOProperty "text"   , strValueToEnter
							Else
							
								strValueToEnter = ObjTestCase.TestValue
								
								'Convert Special Charecter for regular rule
								
								SpecialCharecterForRegular = "()*%?"
								
								For Iterator = 1 To len(SpecialCharecterForRegular) Step 1
									ReplaceChar = Mid(SpecialCharecterForRegular,Iterator,1)
									
									strValueToEnter = replace(strValueToEnter,ReplaceChar,"\"&ReplaceChar)
									
								Next
								
								FlagFound = False
								ObjTestCase.ActualResult = "Find Scroll object in View text=" & strValueToEnter
								
								call logging(" Find TestData = [" &strValueToEnter& "]",c_DEBUG,3)
						
								With Device("Device").App(GAutomate.ApplicationName)
								
									'Condition search
									If ObjTestCase.ObjRepo_micclass_type    = "mobilelabel" Then
									
										Set ObjectFind = .MobileLabel("text:=" & strValueToEnter)
										
									'ElseIf ObjTestCase.ObjRepo_micclass_type = "mobilebutton" Then
									'	Set ObjectFind = .MobileButton("text:=" & strValueToEnter)
										
									Else
										'Unknow object Type
										call FrameWorkErrorCode(18,"")
									End If
									
									'Check found object
									On Error resume next
									Err.Clear
									
									'Verify cant' found object
									ObjectFind_top = ObjectFind.GetROProperty("top")
									
									If Err.Number <> 0 Then
										call logging(" Error not found object on screen",c_DEBUG,3)
										FlagFound = False
									else
										FlagFound = True
									End If
									
									On Error goto 0
									
									If FlagFound Then
										
										set ScrollObj = ObjTestCase
										
										OriTestValue = ObjTestCase.TestValue
										ScrollObj.TestValue = strValueToEnter
										Me.MC_ObjScrollInView(ScrollObj)
										
										ObjTestCase.TestValue = OriTestValue
										
										'ObjTestCase.ObjRepo_Handle_Child.SetTOProperty "mcindex", ObjectFind.GetROProperty("mcindex")
										'ObjTestCase.ObjRepo_Handle_Child.SetTOProperty "text"   ,ori_text
										
										ObjTestCase.ObjRepo_Handle_Child = ObjectFind
										set ObjectHandleChild = ObjTestCase.ObjRepo_Handle_Child									
									Else
										ObjTestCase.ObjRepo_Handle_Child.SetTOProperty "mcindex", 999
										ObjTestCase.ObjRepo_Handle_Child.SetTOProperty "text"   , "N/A"
										set ObjectHandleChild = ObjTestCase.ObjRepo_Handle_Child
										
									End If
									
								End With
							
							End if
						
						'"mobilelabel-bk",
						Case  "mobilebutton", "mobilecheckbox"
						
							'mobilelabel-bk old logic for verify object
							
							'Skip assing mcindex for some object
							If lcase(ObjTestCase.TestValue) = lcase(CT_SkipMapping_MCIndex) Then
								call logging("   Skip assign mcindex on runtime for Object : " & ObjTestCase.UIName ,c_DEBUG,3)
							
							Else
							
								Set FilterDesc = Description.create
								'FilterDesc("nativeclass").value = ObjTestCase.ObjRepo_Handle_Child.GetROProperty("nativeclass")
								FilterDesc("resourceid").value = ObjTestCase.ObjRepo_Handle_Child.GetROProperty("resourceid")
								FilterDesc("class").value      = ObjTestCase.ObjRepo_Handle_Child.GetROProperty("class")
																														
								FlagFound = False
								set ArrObjs = Device("Device").App(GAutomate.ApplicationName).MobileObject("MainPage").ChildObjects(FilterDesc)
								
								call logging("   Query same type object found "& ArrObjs.Count & " object(s)" ,c_DEBUG,3)
															
								For ArrayElement = 0 To ArrObjs.Count - 1 Step 1
									
									If ArrObjs(ArrayElement).Exist(Me.DefaultObjectExists) Then
										
										text = ArrObjs(ArrayElement).GetROProperty("text")
										
										ori_text = text
										
										'Replace for mutiple line
										text = replace(text,chr(13),"")
										text = replace(text,chr(10),"")
										text = replace(text,vbNewLine,"")
										text = replace(text,vbCrLf,"")
										
										If (left(ObjTestCase.TestValue,1) = "^" and right(ObjTestCase.TestValue,1) = "$") Then
											
											If GAutoLibrary.Regex_Test(text, ObjTestCase.TestValue) = true Then
												'For incase TestData's Regular rule
												ObjTestCase.TestValue = text
												
											End If
											
										End If
										
										If text = ObjTestCase.TestValue Then
										
											ObjTestCase.ObjRepo_Handle_Child.SetTOProperty "mcindex",ArrObjs(ArrayElement).GetROProperty("mcindex")
											'ObjTestCase.ObjRepo_Handle_Child.SetTOProperty "text"   ,ObjTestCase.TestValue
											ObjTestCase.ObjRepo_Handle_Child.SetTOProperty "text"   ,ori_text
											set ObjectHandleChild = ObjTestCase.ObjRepo_Handle_Child
											
											call logging("UIName "& ObjTestCase.UIName ,c_DEBUG,3)
											call logging("          - index reference = [" & ArrayElement & "]",c_DEBUG,3)
											call logging("          - assign mcindex on runtime  = [" & ArrObjs(ArrayElement).GetROProperty("mcindex") & "]",c_DEBUG,3)
											call logging("          - assign mcindex on file.tsr = [" & ObjTestCase.ObjRepo_Handle_Child.GetROProperty("mcindex") & "]",c_DEBUG,3)
											
											FlagFound = True
											Exit for
										End If
																			
									End If
	
								Next
								
								'Clear mcindex to missing incase not found
								If Not FlagFound Then
									ObjTestCase.ObjRepo_Handle_Child.SetTOProperty "mcindex", 999
									ObjTestCase.ObjRepo_Handle_Child.SetTOProperty "text"   , "N/A"
									set ObjectHandleChild = ObjTestCase.ObjRepo_Handle_Child
									
								End If
								
								Set FilterDesc = Nothing
							
							End If
							
						Case "mobileedit"
						
							If (ObjTestCase.ObjRepo_Handle_Child.GetTOProperty("mcindex")     = 0 or _
                                len(ObjTestCase.ObjRepo_Handle_Child.GetTOProperty("resourceid"))) > 0 and ObjTestCase.UIName <> "mobile_edit_inp" Then
								call logging("   Skip assign mcindex on runtime for Object : " & ObjTestCase.UIName & " on Case 2" ,c_DEBUG,3)
							
							Else
							
								strValueToEnter = ObjTestCase.TestValue							
								
								FlagFound = False
								
						
								With Device("Device").App(GAutomate.ApplicationName)
								
									'Convert Special Charecter for regular rule
									SpecialCharecterForRegular = "()*%?/"
									
									For Iterator = 1 To len(SpecialCharecterForRegular) Step 1
										ReplaceChar = Mid(SpecialCharecterForRegular,Iterator,1)
										
										strValueToEnter = replace(strValueToEnter,ReplaceChar,"\"&ReplaceChar)
										
									Next
								
									call logging(" Find TestData = [" &strValueToEnter& "]",c_DEBUG,3)
								
									'Condition search
									'Set ObjectFind = .MobileLabel("hint:=" & strValueToEnter)
									Set FilterDesc = Description.create
									FilterDesc("class").value = "Input"
									FilterDesc("hint").value  = strValueToEnter
									
									Set ArrObj = Device("Device").App("SCB EASY UAT").ChildObjects(FilterDesc)
									
									call logging("   Query same type object found "& ArrObj.Count & " object(s)" ,c_DEBUG,3)
									
									If ArrObj.Count > 0 Then
										For Iterator = 0 To ArrObj.Count - 1 Step 1		
'												print "["&ArrObj(Iterator).GetRoProperty("hint")&"]"
'												print "["&strValueToEnter&"]"												
											If ArrObj(Iterator).Exist(1) Then
												Set ObjectFind = ArrObj(Iterator)
												Exit For
											End If											
										Next
										
									End If
'									Set ObjectFind = .MobileEdit("hint:=" & strValueToEnter)
									
									
									'Check found object
									On Error resume next
									Err.Clear
									
									'Verify cant' found object
									ObjectFind_top = ObjectFind.GetROProperty("top")
									
									If Err.Number <> 0 Then
										call logging(" Error not found object on screen",c_DEBUG,3)
										FlagFound = False
									else
										FlagFound = True
									End If
									
									On Error goto 0
									
									If FlagFound Then
									
										ObjTestCase.ObjRepo_Handle_Child.SetTOProperty "mcindex",ObjectFind.GetROProperty("mcindex")
										ObjTestCase.ObjRepo_Handle_Child.SetTOProperty "hint"   ,strValueToEnter
'										ObjTestCase.ObjRepo_Handle_Child = ObjectFind
'										set ObjectHandleChild = ObjTestCase.ObjRepo_Handle_Child
									Else
										ObjTestCase.ObjRepo_Handle_Child.SetTOProperty "mcindex", 999
										ObjTestCase.ObjRepo_Handle_Child.SetTOProperty "hint"   , "N/A"
										set ObjectHandleChild = ObjTestCase.ObjRepo_Handle_Child
										
									End If
									
								End With
							
							End if
							
'Repalce by code previous statement 
'by Suebsakul.A							
'2019-01-10
'						Case "mobileedit-bk"
'							Set FilterDesc = Description.create
'							'FilterDesc("nativeclss").value = ObjTestCase.ObjRepo_Handle_Child.GetROProperty("nativeclss")
'							FilterDesc("resourceid").value = ObjTestCase.ObjRepo_Handle_Child.GetROProperty("resourceid")
'							FilterDesc("class").value      = ObjTestCase.ObjRepo_Handle_Child.GetROProperty("class")
'							FilterDesc("hint").value       = ObjTestCase.TestValue
'
'							set ArrObjs = Device("Device").App(GAutomate.ApplicationName).MobileObject("MainPage").ChildObjects(FilterDesc)
'							
'							call logging("   Query same type object found "& ArrObjs.Count & " object(s)" ,c_DEBUG,3)
'
'							For ArrayElement = 0 To ArrObjs.Count - 1 Step 1
'								
'								If ArrObjs(ArrayElement).Exist(Me.DefaultObjectExists) Then
'									
'									text = ArrObjs(ArrayElement).GetROProperty("hint")
'									
'									'Replace for mutiple line
'									'text = replace(text,chr(13),"")
'									'text = replace(text,chr(10),"")
'									'text = replace(text,vbNewLine,"")
'									'text = replace(text,vbCrLf,"")
'									
'									If text = ObjTestCase.TestValue Then
'									
'										ObjTestCase.ObjRepo_Handle_Child.SetTOProperty "mcindex",ArrObjs(ArrayElement).GetROProperty("mcindex")
'										ObjTestCase.ObjRepo_Handle_Child.SetTOProperty "hint"   ,ObjTestCase.TestValue
'										set ObjectHandleChild = ObjTestCase.ObjRepo_Handle_Child
'										
'										call logging("UIName "& ObjTestCase.UIName ,c_DEBUG,3)
'										call logging("          - index reference = [" & ArrayElement & "]",c_DEBUG,3)
'										call logging("          - assign mcindex on runtime  = [" & ArrObjs(ArrayElement).GetROProperty("mcindex") & "]",c_DEBUG,3)
'										call logging("          - assign mcindex on file.tsr = [" & ObjTestCase.ObjRepo_Handle_Child.GetROProperty("mcindex") & "]",c_DEBUG,3)
'											
'										Exit for
'									End If
'																		
'								End If
'
'							Next
'
'							Set FilterDesc = Nothing
							
						Case "mobiledropdown"
							Set FilterDesc = Description.create
							'FilterDesc("nativeclss").value = ObjTestCase.ObjRepo_Handle_Child.GetROProperty("nativeclss")
							FilterDesc("resourceid").value = ObjTestCase.ObjRepo_Handle_Child.GetROProperty("resourceid")
							FilterDesc("class").value      = ObjTestCase.ObjRepo_Handle_Child.GetROProperty("class")
							
							set ArrObjs = Device("Device").App(GAutomate.ApplicationName).MobileObject("MainPage").ChildObjects(FilterDesc)
							
							call logging("   Query same type object found "& ArrObjs.Count & " object(s)" ,c_DEBUG,3)
							
							For ArrayElement = 0 To ArrObjs.Count - 1 Step 1
								
								If ArrObjs(ArrayElement).Exist(Me.DefaultObjectExists) Then
									
									ObjTestCase.ObjRepo_Handle_Child.SetTOProperty "mcindex",ArrObjs(ArrayElement).GetROProperty("mcindex")
									set ObjectHandleChild = ObjTestCase.ObjRepo_Handle_Child
									
									call logging("UIName "& ObjTestCase.UIName ,c_DEBUG,3)
									call logging("          - index reference = [" & ArrayElement & "]",c_DEBUG,3)
									call logging("          - assign mcindex on runtime  = [" & ArrObjs(ArrayElement).GetROProperty("mcindex") & "]",c_DEBUG,3)
									call logging("          - assign mcindex on file.tsr = [" & ObjTestCase.ObjRepo_Handle_Child.GetROProperty("mcindex") & "]",c_DEBUG,3)
										
									Exit for
																		
								End If

							Next
							
							Set FilterDesc = Nothing
							
						Case "mobileobject"
							
							'Assign mcindex on runtime follow UIName
							'Select Case ObjectHandleParent.GetROProperty("resourceid")
							Select Case ObjTestCase.UIName
								
								'Case "bb_bottom_bar_item_container"
								Case "bottom_bar_icon_1_home_icon"    ,"bottom_bar_icon_2_account_icon" , _
								     "bottom_bar_icon_3_payment_icon" ,"bottom_bar_icon_4_notification_icon" , _
								     "bottom_bar_icon_5_more_icon"
								     
									Set FilterDesc = Description.create
									
									'For Android
									FilterDesc("resourceid").value = "bb_bottom_bar_icon"									
									set ArrObjs = ObjectHandleParent.ChildObjects(FilterDesc)
									
									'For iOS
									'FilterDesc("class").value = "Button"
									'set ArrObjs = Device("Device").App("SCB-FastEasy uat").MobileTabStrip("iOSTest").ChildObjects(FilterDesc)
									
									call logging("   Query same type object found "& ArrObjs.Count & " object(s)" ,c_DEBUG,3)
									
									'Get index from TSR file									
									ArrayElement = Regex_Match(ObjTestCase.UIName, "[0-9]{1,2}")
									
									If ArrayElement >= 0 Then
										
										ArrayElement = ArrayElement - 1
										
										'Setup mcindex on runtime
										If ArrObjs(ArrayElement).Exist(Me.DefaultObjectExists) Then
										
											'For Android
											ObjTestCase.ObjRepo_Handle_Child.SetTOProperty "mcindex",ArrObjs(ArrayElement).GetROProperty("mcindex")
											set ObjectHandleChild = ObjTestCase.ObjRepo_Handle_Child
											
											'For iOS
											'set ObjTestCase.ObjRepo_Handle_Child = ArrObjs(ArrayElement)									
											'set ObjectHandleChild = ObjTestCase.ObjRepo_Handle_Child
											
											call logging("UIName "& ObjTestCase.UIName ,c_DEBUG,3)
											call logging("          - index reference = [" & ArrayElement & "]",c_DEBUG,3)
											call logging("          - assign mcindex on runtime  = [" & ArrObjs(ArrayElement).GetROProperty("mcindex") & "]",c_DEBUG,3)
											call logging("          - assign mcindex on file.tsr = [" & ObjTestCase.ObjRepo_Handle_Child.GetROProperty("mcindex") & "]",c_DEBUG,3)
											
										End If
										
									End If
									
									Set FilterDesc = Nothing
									
								Case "scbeasy_card_view_pager_1_obj", "scbeasy_card_view_pager_2_obj", _
								     "scbeasy_card_view_pager_3_obj", "scbeasy_card_view_pager_4_obj", _ 
								     "scbeasy_card_view_pager_5_obj", "scbeasy_card_view_pager_6_obj", _ 
								     "scbeasy_card_view_pager_7_obj", "scbeasy_card_view_pager_8_obj"
									Set FilterDesc = Description.create
								
									FilterDesc("resourceid").value      = "(card_view_pager|account_select_view_pager|view_pager_select_account)"
									
									'retry when page refresh
									iCount = 0
									
									Do While iCount < 2
										
										'Set ArrObjs = Device("Device").App("SCB EASY UAT").MobileObject("MainPage").ChildObjects(FilterDesc)
										Set ArrObjs = ObjectHandleParent.ChildObjects(FilterDesc)
										
										If ArrObjs.Count > 0 Then											
											Exit DO
										End If
										
										iCount = iCount + 1
									Loop
									
									
									call logging("   Query same type object found "& ArrObjs.Count & " object(s)" ,c_DEBUG,3)
									
									'Get index from TSR file									
									ArrayElement = Regex_Match(ObjTestCase.UIName, "[0-9]{1,2}")
									
									If ArrayElement >= 0 Then
										
										ArrayElement = ArrayElement - 1
										
										'Setup mcindex on runtime
										If ArrObjs(ArrayElement).Exist(Me.DefaultObjectExists) Then
										
											ObjTestCase.ObjRepo_Handle_Child.SetTOProperty "nativeclass",ArrObjs(ArrayElement).GetROProperty("nativeclass")
											ObjTestCase.ObjRepo_Handle_Child.SetTOProperty "resourceid" ,ArrObjs(ArrayElement).GetROProperty("resourceid")
											ObjTestCase.ObjRepo_Handle_Child.SetTOProperty "mcindex"    ,ArrObjs(ArrayElement).GetROProperty("mcindex")
											set ObjectHandleChild = ObjTestCase.ObjRepo_Handle_Child
											
											call logging("UIName "& ObjTestCase.UIName ,c_DEBUG,3)
											call logging("          - index reference = [" & ArrayElement & "]",c_DEBUG,3)
											call logging("          - assign mcindex on runtime  = [" & ArrObjs(ArrayElement).GetROProperty("mcindex") & "]",c_DEBUG,3)
											call logging("          - assign mcindex on file.tsr = [" & ObjTestCase.ObjRepo_Handle_Child.GetROProperty("mcindex") & "]",c_DEBUG,3)
											
										End If
										
									End If								
								
							End Select
						
					End Select
					
					If ObjectHandleChild.Exist(Me.DefaultObjectExists) Then
		
						'Highlight When debugmode is on
						If LCase(Environment("DebugMode")) = "on" Then
							ObjectHandleChild.highlight
						End If
						
						Select Case ObjTestCase.ObjRepo_micclass_type
							Case "winbutton"
								checkValue = "False"
								Do 
									call logging("Waiting windbutton until visible = True...",c_DEBUG,3)
								 	checkValue = ObjectHandleChild.GetROProperty("visible")
								Loop until checkValue = "True"
						End Select

						'Exit because found object mission completed
						Exit Do
					else
						wait 1
						call logging("PreAction Retry Waiting...",c_DEBUG,3)
						
						For Iterator = 1 To 3
						
							'Try keep focus on page
							'ObjectHandleParent.highlight
							If LCase(Environment("DebugMode")) = "on" Then
								'ObjectHandleParent.highlight
								Device("Device").App(GAutomate.ApplicationName).MobileObject("MainPage").highlight
							End If
							mySendKeys.SendKeys("{DOWN 1}")
							
							wait 1
						Next
		
						iMaxLoop = iMaxLoop - 1
					End If
				Loop until ObjectHandleChild.Exist(Me.DefaultObjectExists) or iMaxLoop <= 0
				
				If iMaxLoop <= 0 Then
				
					call logging("--------------------------------------------------------",c_DEBUG,1)
					call logging("|  G-Able Framework Pre-Action over Maximum loop retry  |",c_DEBUG,2)
					call logging("--------------------------------------------------------",c_DEBUG,1)
					Call FrameWorkErrorCode(34,"")
					Print ""
					
					iRet = False
				End If

		End Select
		
		set mySendKeys = Nothing
		set ObjectHandleChild  = Nothing
		set ObjectHandleParent = Nothing
		
		PreAction = iRet
		
		call logging("Call Method " & sMethod & " Done.",c_DEBUG,1)			
	End Function

	Public Sub PostAction(ByRef ObjTestCase)

		sMethod = sClass & ".PostAction"
		call logging("Call Method " & sMethod,c_DEBUG,1)
		
		If len(ObjTestCaseValue.UIName) > 0 Then
			
			set ObjectHandleParent = ObjTestCase.ObjRepo_Handle_Parent
			set ObjectHandleChild  = ObjTestCase.ObjRepo_Handle_Child		
		
			Select Case ObjTestCase.Activity
			
				Case "WB_ClickOnButton"
					If ObjectHandleParent.GetROProperty("micclass") = "Page" Then
						ObjectHandleParent.Sync
					End If
			
			End Select			
			
			set ObjectHandleParent = Nothing
			
		Else
	
			Select Case ObjTestCase.Activity
			
				Case "WB_CheckEventMsg_SCBAdmin"
					SystemUtil.CloseProcessByName DefaultBrowser	
			
			End Select		
	
		End If	

		call logging("   - Err.Number = [" & err.number & "]",c_DEBUG,1)
		
	End Sub		
	
	'**********************************************************************************************************************************
	'*  Sub Name :	WB_PageSyncWait()
	'*  Purpose:        Sync page and wait time
	'*  Arguments:      strValueToEnter
	'* 	Return Value:   Flag True or False
	'* 	Author By		Jackie (SCB)
	'************************************************************************************************************************
	Sub WB_PageSyncWait(ByRef ObjTestCase)
		sMethod = sClass & ".WB_PageSyncWait"
	  	call logging("sModule " & sMODULE,c_DEBUG,3)
	  	
	  	strValueToEnter = ObjTestCase.TestValue
		Set objTestObject = ObjTestCase.ObjRepo_Handle_Child
		set ObjectHandleParent = ObjTestCase.ObjRepo_Handle_Parent
		
		If lcase(ObjectHandleParent.getRoProperty("micclass")) = "page" Then
			ObjectHandleParent.sync
		End If
		
		If ObjectHandleParent.exist Then
			wait strValueToEnter
		else
			wait strValueToEnter
		End If
		
		descript="Sync page and wait <b>["&strValueToEnter& "]</b> second"
		
		ObjTestCase.ActualResult = descript
	End Sub

	Sub WB_10XWait_StatusChange(ByRef ObjTestCase)
		
		sMethod = sClass & ".WB_10XWait_StatusChange"
		call logging("Call Method " & sMethod,c_DEBUG,1)
		
		ObjTestCase.Status = CT_Test_Failed	
		
		SplitVar = split(ObjTestCase.TestValue,";")
		
		TimeOut = trim(SplitVar(0))
		LeadStatus = trim(SplitVar(1))
		ENetNumber = trim(SplitVar(2))
		
		CurrentStatusWorkstation = trim(Browser("SCB10x").Page("Lead System").WebElement("CurrentStatus_txt").GetROProperty("innertext"))
		
		expect_time = DateAdd("s",Timeout,time())
		call logging("expect_time ["&expect_time&"] second",c_DEBUG,3)
		
		If LeadStatus = CurrentStatusWorkstation Then
			ObjTestCase.Status = CT_Test_Passed 
			descript="Current Status Workstation <b>["& CurrentStatusWorkstation &"]</b> Match Excel <b>["& LeadStatus &"]</b>"
			ObjTestCase.ActualResult = descript
		Else
		
			ObjTestCase.Status = CT_Test_Failed
		
			For i = 1 To Timeout Step 1
			
				call logging("wait time "&DateDiff("s",time(),expect_time) &" second",c_DEBUG,3)
				
				If DateDiff("s",time(),expect_time) <=0 Then
					
					ObjTestCase.Status = CT_Test_Failed
					
					descript= "Current Status Workstation not change : <b>["&CurrentStatusWorkstation&"]</b> in <b>["&Timeout&"]</b> Second"
					
					ObjTestCase.ActualResult = descript
					
					Exit for
					
				Else
					
					CurrentStatusWorkstation = trim(Browser("SCB10x").Page("Lead System").WebElement("CurrentStatus_txt").GetROProperty("innertext"))					
										
					If LeadStatus = CurrentStatusWorkstation Then
					
						ObjTestCase.Status = CT_Test_Passed 
						descript="Current Status Workstation <b>["& CurrentStatusWorkstation &"]</b> Match Excel <b>["& LeadStatus &"]</b>"
						ObjTestCase.ActualResult = descript

						Exit for
					End If
					
				End If
				
				Wait 30
				call logging("wait time [30] second",c_DEBUG,3)
				
				Browser("SCB10x").Refresh
				
				Browser("SCB10x").Page("Lead System").WebEdit("EnetNumber_txt").Set ENetNumber
				Browser("SCB10x").Page("Lead System").WebButton("GlobalSearch_Btn").Click
				
			Next
		
		End If
		
	End Sub



	'**********************************************************************************************************************************
	'*  Function Name : LaunchIE()
	'*  Purpose:        Launch Internet Explorer program
	'*  Arguments:      URL
	'* Modified by : Krishnakanth
	'*Modified date:10/2/2016	  
	'**********************************************************************************************************************************
	Function LaunchIE(URL)
		'On Error Resume Next
		
		
		'Special Terminal Process
		SystemUtil.CloseDescendentProcesses

		'Kill procress agine by special command
'		Set oShell  = CreateObject("WScript.Shell")
'		oShell.Run "D:\Automate\EasyNet\ExternalProgram\pskill.exe -nobanner -t iexplore.exe", , True	
'		oShell = Nothing

		wait 2
		SystemUtil.Run "iexplore.exe", URL, , , 3
		Browser("micclass:=Browser").Sync
		wait 2
		

'		
'		'Set oShell  = CreateObject("WScript.Shell")
'		Set process = GetObject("winmgmts:\\")
'		Do 
'		
'			print "Loop kitt IE Process : " & objProcess
'		    'oShell.Run "taskkill /im iexplore.exe", , True		
'			SystemUtil.CloseProcessByName "iexplore.exe"
'			Set allIExplorer = process.ExecQuery("Select * from Win32_Process Where Name = 'iexplore.exe'")
'		Loop Until allIExplorer.Count = 0		
'		
'		
'	 	Set IE = CreateObject("InternetExplorer.Application")
'		IE.Visible = true
'		hWnd = IE.HWND
'		IE.Navigate URL
'		
'		err.clear
'		
'	'	While IE.Busy
'	'	Wend
'	
''	Do
''		wait 1
''	Loop Until ((IE.Busy = True) or (IE.Busy = Empty))
'		
'	'	If Browser("name:=Certificate Error: Navigation Blocked").Exist Then
'	'		'hWnd=Browser("name:=Certificate Error: Navigation Blocked").GetROProperty("hwnd")
'	'	Elseif Browser("name:=SCB Easy Net").Exist then
'	'		'hWnd=Browser("name:=SCB Easy Net").GetROProperty("hwnd")
'	'	End If
'	
'	wait 5	
'	Window("hwnd:=" & hWnd).Activate
'	Window("hwnd:=" & hWnd).Maximize
'	
''		Browser_Version = GetDeviceProperty("version")		
''		If len(Browser_Version) >0 or Browser_Version <> "" or Browser_Version <> null Then
''			Environment("Browser_Version") = Browser_Version
''		Else
''			Environment("Browser_Version") = ""
''		End If
'	
'		'Browser("SCBEasyNet").SetTOProperty "hwnd",hWnd
'		Set IE = Nothing
'		Set oShell = Nothing

		err.clear
		LaunchIE = True
		
	End Function
	
	'*******************************************************************************************************************************************************************************************************************************************************
	'*  Function Name : LaunchChrome
	'*  Purpose       : Open Browser Chrome
	'*  Arguments:      URL
	'*  Creator       : Suebsakul.A
	'*******************************************************************************************************************************************************************************************************************************************************
	Function LaunchChrome(URL)
	'	On Error Resume Next
	
	'	strComputer = "."
	'	Set objWMIService = GetObject("winmgmts:{impersonationLevel=impersonate}!\\" & strComputer & "\root\cimv2")
	' 
	'	Set colProcessList = objWMIService.ExecQuery("Select * from Win32_Process Where Name = 'Chrome.exe'")
	'
	'	Set oShell = CreateObject("WScript.Shell")
	'	For Each objProcess in colProcessList
	'		print "Test : " & objProcess
	'	    oShell.Run "taskkill /im chrome.exe", , True
	'	Next
		
		'KillProcess "Chrome.exe"
'		Set oShell = CreateObject("WScript.Shell")
'		oShell.Run "taskkill /im chrome.exe",0 , False

		If Browser("index:=0").Exist(5) Then
			Browser("index:=0").CloseAllTabs
			Browser("index:=0").Close
		End If
		
		'Get Object from winmamts
		Set process = GetObject("winmgmts:\\")
		Do 
			SystemUtil.CloseProcessByName "chrome.exe"
			Set allIExplorer = process.ExecQuery("Select * from Win32_Process Where Name = 'chrome.exe'")
		Loop Until allIExplorer.Count = 0

'		
'		For Each Chrome in allIExplorer
'			Chrome.Terminate()
'		Next
		
		'SystemUtil.CloseProcessByName "chrome.exe"
		
		wait 1
		
		'--ignore-certificate-errors
		'SystemUtil.Run "Chrome.exe", URL," --ignore-certificate-errors", , 3
		SystemUtil.Run "Chrome.exe", URL," --ignore-certificate-errors --disable-session-crashed-bubble", , 3
		wait 2
		
		Browser("index:=0").Page("index:=0").Sync
		wait 2
		
		
'		'Maximize
'		If Browser("Exus_UAT").InsightObject("Chrome_Maximize").Exist(Me.DefaultObjectExists) Then
'			Browser("Exus_UAT").InsightObject("Chrome_Maximize").Click
''		else
''			hWnd = Browser("micClass:=Browser").GetROProperty("hwnd")
''			hWnd = Browser("hwnd:=" & hWnd).Object.hWnd
''			
''			Window("hwnd:=" & hWnd).Activate
''			Window("hwnd:=" & hWnd).Maximize
'		End If
		
'		With Browser("Exus_UAT")
'			
'			If .InsightObject("Chrome_Not_Secure").Exist(Me.DefaultObjectExists) Then
'				.InsightObject("Chrome_Not_Secure").Click
'			End If
'			
'			If .InsightObject("Chrome_Not_Secure_Advance").Exist(Me.DefaultObjectExists) Then
'				.InsightObject("Chrome_Not_Secure_Advance").Click
'			End If
'			
'			If .InsightObject("Chrome_Not_Secure_ProcessTo").Exist(Me.DefaultObjectExists) Then
'				.InsightObject("Chrome_Not_Secure_ProcessTo").Click
'			End If
'		End With
		
		
		'Wait for investigate
'		Browser_Version = GetDeviceProperty("version")		
'		If len(Browser_Version) >0 or Browser_Version <> "" or Browser_Version <> null Then
'			Environment("Browser_Version") = Browser_Version
'		Else
'			Environment("Browser_Version") = ""
'		End If
		
		Set allIExplorer = Nothing
		Set process = Nothing
		Set oShell  = Nothing
		LaunchChrome = True
	     
	End Function
	
	'*******************************************************************************************************************************************************************************************************************************************************
	'*  Function Name : LaunchFirefox
	'*  Purpose       : Open Browser Firefox
	'*  Arguments:      URL
	'*  Creator       : Anupol H.
	'*******************************************************************************************************************************************************************************************************************************************************
	Function LaunchFirefox(URL)
		On Error Resume Next
	
	'	strComputer = "."
	'	Set objWMIService = GetObject("winmgmts:{impersonationLevel=impersonate}!\\" & strComputer & "\root\cimv2")
	' 
	'	Set colProcessList = objWMIService.ExecQuery("Select * from Win32_Process Where Name = 'Chrome.exe'")
	'
	'	Set oShell = CreateObject("WScript.Shell")
	'	For Each objProcess in colProcessList
	'		print "Test : " & objProcess
	'	    oShell.Run "taskkill /im chrome.exe", , True
	'	Next
		
		'KillProcess "Chrome.exe"
		Set oShell = CreateObject("WScript.Shell")
		oShell.Run "taskkill /im firefox.exe",0 , False
		
		wait 1
'		SystemUtil.CloseProcessByName "firefox.exe"
'		SystemUtil.Run FirefoxPath, URL, 3
		SystemUtil.Run "firefox.exe", URL, 3
		
'		Browser_Version = GetDeviceProperty("version")		
'		If len(Browser_Version) >0 or Browser_Version <> "" or Browser_Version <> null Then
'			Environment("Browser_Version") = Browser_Version
'		Else
'			Environment("Browser_Version") = ""
'		End If
		
		Set oShell = Nothing
		LaunchFirefox = True
	     
	End Function

Function Regex_Match(strValueToEnter, strPattern)
		sMethod = sClass & ".Regex_Match"
		call logging("Call Method " & sMethod,c_DEBUG,1)
		
		Set Regex = New RegExp
		regex.Global = true
		regex.Pattern = strPattern
		Set Matches = regex.Execute(strValueToEnter)
		
		For each Match in Matches
			Regex_Match = Match.Value
		Next
		
	End Function
	
	'**********************************************************************************************************************************
	'*  Function Name : Regex_Test
	'*  Purpose:        returns True if the regular expression can successfully be matched against the string,
	'*					otherwise False is returned.
	'*  Arguments:      strValueToEnter, strPattern
	'* 	Return Value:   True or False
	'* 	Author By		KORAKRIT C.
	'************************************************************************************************************************
	Function Regex_Test(strValueToEnter, strPattern)
		sMethod = sClass & ".Regex_Test"
		call logging("Call Method " & sMethod,c_DEBUG,1)
		
		Set Regex = New RegExp
		Regex.Global = true
		Regex.Pattern = strPattern
		
		if Regex.Test(strValueToEnter) Then
			Regex_Test = True
		else
			Regex_Test = False
		End If
		
	End Function
	
	'**********************************************************************************************************************************
'*  Function Name : WB_CheckEventMsg_SCBAdmin()
'*  Purpose:        Check event code and response success
'*  Arguments:      strValueToEnter,ExpectedResult
'* 	Return Value:   Flag True or False
'* 	Author By		ANUPOL H. (AMS-GABLE)
'**********************************************************************************************************************************
Function WB_CheckEventMsg_SCBAdmin(ByRef ObjTestCase)
	On Error Resume Next
	Activity = "Check event code and response success"
	Const sModule = "WB_CheckEventMsg_SCBAdmin"
  	call logging("sModule " & sMODULE,c_DEBUG,3)
  	
  	strValueToEnter = ObjTestCase.TestValue
  		
	iRet = False
	If Instr(strValueToEnter,";") > 0 Then	
		SplitVar = split(strValueToEnter,";")
		CustomerID = trim(SplitVar(0))
		EventCode = trim(SplitVar(1))
		
'		DefaultBrowser="chrome.exe"
		SystemUtil.CloseProcessByName DefaultBrowser
		wait 1		
		SystemUtil.Run DefaultBrowser, "https://panelbeanu.se.scb.co.th/login"
		UserName_A = "UATFast14"
		Password_A ="5acc8f1e1b40a7e3f2c29cf05155121807f23348c5dc4e23" 'Easy1234!
		
		Browser("SCB Admin").Page("SCB Admin Panel").Sync
		Browser("SCB Admin").Page("SCB Admin Panel").WebEdit("username").Set UserName_A 
		Browser("SCB Admin").Page("SCB Admin Panel").WebEdit("password").SetSecure Password_A 
		Browser("SCB Admin").Page("SCB Admin Panel").WebButton("Log In").Click

		If Browser("SCB Admin").Page("SCB Admin Panel Welcome").Link("Search Audit Log").Exist(20) Then
			Browser("SCB Admin").Page("SCB Admin Panel Welcome").Link("Search Audit Log").Click
			Browser("SCB Admin").Page("SCB Admin Panel AuditTrail").WebEdit("CustomerID").Set CustomerID
			Browser("SCB Admin").Page("SCB Admin Panel AuditTrail").WebEdit("To").Set ""		
			Browser("SCB Admin").Page("SCB Admin Panel AuditTrail").WebButton("Select_Event").Click
			
			If Browser("SCB Admin").Page("SCB Admin Panel AuditTrail").WebElement("deselectAll").Exist(10) Then
				Browser("SCB Admin").Page("SCB Admin Panel AuditTrail").WebElement("deselectAll").Click
			End If
			
			If Browser("SCB Admin").Page("SCB Admin Panel AuditTrail").WebEdit("Search_Event").Exist(10) Then
				Browser("SCB Admin").Page("SCB Admin Panel AuditTrail").WebEdit("Search_Event").Highlight
				Browser("SCB Admin").Page("SCB Admin Panel AuditTrail").WebEdit("Search_Event").Click
				wait 1
				Browser("SCB Admin").Page("SCB Admin Panel AuditTrail").WebEdit("Search_Event").Set EventCode	
				wait 1				
			End If
			
			If Browser("SCB Admin").Page("SCB Admin Panel AuditTrail").WebElement("EventBtn").Exist(10) Then
				Browser("SCB Admin").Page("SCB Admin Panel AuditTrail").WebElement("EventBtn").Click
				CodeEvent_Found = True
				Browser("SCB Admin").Page("SCB Admin Panel AuditTrail").WebButton("Select_Event").Click
			Else
				CodeEvent_Found = False
			End If
			
			If CodeEvent_Found Then			
				Browser("SCB Admin").Page("SCB Admin Panel AuditTrail").WebButton("AuditSearch").Click
				wait 2
			 	CusColIndex = 2	
			 	EventCodeColIndex = 4
				EventDescColIndex = 5
				ResDescColIndex = 8
				Row = Browser("SCB Admin").Page("SCB Admin Panel AuditTrail").WebTable("ResultTable").RowCount
				call logging("Found total row : "&Row,c_DEBUG,3) 
	'			Result = ""
				If Row >=2 Then
					For i = 2 To Row 
						Get_CusID = Browser("SCB Admin").Page("SCB Admin Panel AuditTrail").WebTable("ResultTable").GetCellData(i,CusColIndex)
						Get_EventCode = Browser("SCB Admin").Page("SCB Admin Panel AuditTrail").WebTable("ResultTable").GetCellData(i,EventCodeColIndex)
						Get_EventDesc = Browser("SCB Admin").Page("SCB Admin Panel AuditTrail").WebTable("ResultTable").GetCellData(i,EventDescColIndex)
						Get_ResDescript = Browser("SCB Admin").Page("SCB Admin Panel AuditTrail").WebTable("ResultTable").GetCellData(i,ResDescColIndex)
						call logging("CusTomerID ["&Get_CusID&"] | EventCode ["&Get_EventCode&"] | EventDescript ["&Get_EventDesc&"] | Response Description ["&Get_ResDescript&"]",c_DEBUG,3)
		'				If cstr(Get_CusID) = cstr(CustomerID) and cstr(Get_EventCode) = cstr(EventCode) and Get_ResDescript = "สำเร็จ" or lcase(Get_ResDescript) = "success"  Then
						If cstr(Get_CusID) = cstr(CustomerID) and cstr(Get_EventCode) Then				
							Browser("SCB Admin").Page("SCB Admin Panel AuditTrail").WebTable("ResultTable").Cell(i-1,EventCodeColIndex).Highlight
							iRet = True
							descript = "Found event code <b>["&Get_EventCode&"]</b> - "&Get_EventDesc&" , Response <b>["&Get_ResDescript&"]</b>"
							Exit For
						Else
							descript = "Not found CustomerID <b>["&CustomerID&"]</b> or EventCode <b>["&EventCode&"]</b>"
						End If
					Next	
				Else
					descript = "Not found CustomerID <b>["&CustomerID&"]</b> or EventCode <b>["&EventCode&"]</b>"
				End If

			Else
				descript = "Not found Event Code <b>["&EventCode&"]</b>"
			End If
		Else	
			c_DEBUG="error"
			descript = "Web page not response"			
		End If
		
	Else
		c_DEBUG="error"
		descript = "invalid input data"		
	End If
	
	call logging(replace(replace(descript,"<b>",""),"</b>",""),c_DEBUG,3) 
	
	ObjTestCase.ActualResult = descript
'	WB_CheckEventMsg_SCBAdmin = StampStatusToReport (sModule,iRet,Activity,descript,UIName,strValueToEnter,ExpectedResult)
'	SystemUtil.CloseProcessByName DefaultBrowser
End Function
	
End  Class
